…
    ## Rows: 822 Columns: 9
    ## ── Column specification ────────────────────────────────────────────────────────
    ## Delimiter: ","
    ## dbl  (8): prez_gop, gov_gop, sen_gop, rep_gop, prez_dem, gov_dem, sen_dem, r...
    ## date (1): mon
    ## 
    ## ℹ Use `spec()` to retrieve the full column specification for this data.
    ## ℹ Specify the column types or set `show_col_types = FALSE` to quiet this message.

``` r
pols_month_df
```

    ## # A tibble: 822 × 9
    ##     year month     gov_gop sen_gop rep_gop gov_dem sen_dem rep_dem president
    ##    <int> <chr>       <dbl>   <dbl>   <dbl>   <dbl>   <dbl>   <dbl> <chr>    
    ##  1  1947 January        23      51     253      23      45     198 dem      
    ##  2  1947 February       23      51     253      23      45     198 dem      
    ##  3  1947 March          23      51     253      23      45     198 dem      
    ##  4  1947 April          23      51     253      23      45     198 dem      
    ##  5  1947 May            23      51     253      23      45     198 dem      
    ##  6  1947 June           23      51     253      23      45     198 dem      
    ##  7  1947 July           23      51     253      23      45     198 dem      
    ##  8  1947 August         23      51     253      23      45     198 dem      
    ##  9  1947 September      23      51     253      23      45     198 dem      
    ## 10  1947 October        23      51     253      23      45     198 dem      
    ## # ℹ 812 more rows
…
    ## Rows: 787 Columns: 2
    ## ── Column specification ────────────────────────────────────────────────────────
    ## Delimiter: ","
    ## chr (1): date
    ## dbl (1): close
    ## 
    ## ℹ Use `spec()` to retrieve the full column specification for this data.
    ## ℹ Specify the column types or set `show_col_types = FALSE` to quiet this message.

``` r
snp_df
```

    ## # A tibble: 787 × 3
    ##     year month     close
    ##    <dbl> <chr>     <dbl>
    ##  1  1950 December   20.4
    ##  2  1950 November   19.5
    ##  3  1950 October    19.5
    ##  4  1950 September  19.5
    ##  5  1950 August     18.4
    ##  6  1950 July       17.8
    ##  7  1950 June       17.7
    ##  8  1950 May        18.8
    ##  9  1950 April      18.0
    ## 10  1950 March      17.3
    ## # ℹ 777 more rows
…
    ## Rows: 68 Columns: 13
    ## ── Column specification ────────────────────────────────────────────────────────
    ## Delimiter: ","
    ## dbl (13): Year, Jan, Feb, Mar, Apr, May, Jun, Jul, Aug, Sep, Oct, Nov, Dec
    ## 
    ## ℹ Use `spec()` to retrieve the full column specification for this data.
    ## ℹ Specify the column types or set `show_col_types = FALSE` to quiet this message.

``` r
unemployment_df
```

    ## # A tibble: 816 × 3
    ##     year month     `%_UnEmp`
    ##    <dbl> <chr>         <dbl>
    ##  1  1948 January         3.4
    ##  2  1948 February        3.8
    ##  3  1948 March           4  
    ##  4  1948 April           3.9
    ##  5  1948 May             3.5
    ##  6  1948 June            3.6
    ##  7  1948 July            3.6
    ##  8  1948 August          3.9
    ##  9  1948 September       3.8
    ## 10  1948 October         3.7
    ## # ℹ 806 more rows

``` r
#join SNP into POLS

pols_snp_df = 
  left_join(pols_month_df, snp_df, by = c("year", "month"))

pols_snp_df
```

    ## # A tibble: 822 × 10
    ##     year month   gov_gop sen_gop rep_gop gov_dem sen_dem rep_dem president close
    ##    <dbl> <chr>     <dbl>   <dbl>   <dbl>   <dbl>   <dbl>   <dbl> <chr>     <dbl>
    ##  1  1947 January      23      51     253      23      45     198 dem          NA
    ##  2  1947 Februa…      23      51     253      23      45     198 dem          NA
    ##  3  1947 March        23      51     253      23      45     198 dem          NA
    ##  4  1947 April        23      51     253      23      45     198 dem          NA
    ##  5  1947 May          23      51     253      23      45     198 dem          NA
    ##  6  1947 June         23      51     253      23      45     198 dem          NA
    ##  7  1947 July         23      51     253      23      45     198 dem          NA
    ##  8  1947 August       23      51     253      23      45     198 dem          NA
    ##  9  1947 Septem…      23      51     253      23      45     198 dem          NA
    ## 10  1947 October      23      51     253      23      45     198 dem          NA
    ## # ℹ 812 more rows

``` r
#join unemployment

pols_snp_unemp_df = 
  left_join(pols_snp_df, unemployment_df, by = c("year", "month"))

pols_snp_unemp_df
```

    ## # A tibble: 822 × 11
    ##     year month   gov_gop sen_gop rep_gop gov_dem sen_dem rep_dem president close
    ##    <dbl> <chr>     <dbl>   <dbl>   <dbl>   <dbl>   <dbl>   <dbl> <chr>     <dbl>
    ##  1  1947 January      23      51     253      23      45     198 dem          NA
    ##  2  1947 Februa…      23      51     253      23      45     198 dem          NA
    ##  3  1947 March        23      51     253      23      45     198 dem          NA
    ##  4  1947 April        23      51     253      23      45     198 dem          NA
    ##  5  1947 May          23      51     253      23      45     198 dem          NA
    ##  6  1947 June         23      51     253      23      45     198 dem          NA
    ##  7  1947 July         23      51     253      23      45     198 dem          NA
    ##  8  1947 August       23      51     253      23      45     198 dem          NA
    ##  9  1947 Septem…      23      51     253      23      45     198 dem          NA
    ## 10  1947 October      23      51     253      23      45     198 dem          NA
    ## # ℹ 812 more rows
    ## # ℹ 1 more variable: `%_UnEmp` <dbl>
…
